//
//  Created by FitnesseBridgeGenerator
//


import Foundation


@objc(ClassName)

class ClassName: NSObject {

    // Properties

    init(string: NSString) {
        super.init()
    }

    func query() -> NSArray {

//        let result = NSMutableArray()
//        let row = [property1:value, property2:value]
//        result.addObject(row)
//        return result.copy() as! NSArray
    }

}